# #samples=12
# #numAvalanchesEach=1e6
# #s P(s) err[P(s)] binsize
# 
0.000000000000000000e+00 0.000000000000000000e+00 0.000000000000000000e+00 1.000000000000000000e+00
1.000000000000000000e+00 3.163817692307692164e-01 1.474034300929112889e-04 1.000000000000000000e+00
2.000000000000000000e+00 1.334966153846153802e-01 9.073789659074099081e-05 1.000000000000000000e+00
3.000000000000000000e+00 7.732846153846154036e-02 6.693468069162582018e-05 1.000000000000000000e+00
4.000000000000000000e+00 5.213899999999999785e-02 6.753612518591968017e-05 1.000000000000000000e+00
5.000000000000000000e+00 3.811230769230770227e-02 5.545839103413164613e-05 1.000000000000000000e+00
6.000000000000000000e+00 2.942230769230769552e-02 5.251268279228736503e-05 1.000000000000000000e+00
7.000000000000000000e+00 2.364469230769230407e-02 3.297947780980619686e-05 1.000000000000000000e+00
8.000000000000000000e+00 1.950976923076922637e-02 3.982818127492931769e-05 1.000000000000000000e+00
9.000000000000000000e+00 1.646969230769230672e-02 3.482877248059322405e-05 1.000000000000000000e+00
1.500000000000000000e+01 8.964907692307691467e-03 4.883166552745686200e-06 1.000000000000000000e+01
2.500000000000000000e+01 4.024053846153846301e-03 4.695778455774921101e-06 1.000000000000000000e+01
3.500000000000000000e+01 2.448823076923076561e-03 7.165633382691860556e-06 1.000000000000000000e+01
4.500000000000000000e+01 1.710892307692307712e-03 2.739044881688751307e-06 1.000000000000000000e+01
5.500000000000000000e+01 1.282176923076923164e-03 3.502675787534983772e-06 1.000000000000000000e+01
6.500000000000000000e+01 1.019392307692307872e-03 2.337033555228571511e-06 1.000000000000000000e+01
7.500000000000000000e+01 8.424230769230768709e-04 1.969288360536057990e-06 1.000000000000000000e+01
8.500000000000000000e+01 7.054307692307693056e-04 2.770225960777796799e-06 1.000000000000000000e+01
9.500000000000000000e+01 6.065384615384615281e-04 1.894003305358791103e-06 1.000000000000000000e+01
1.500000000000000000e+02 3.496853846153846496e-04 6.046503708804896602e-07 1.000000000000000000e+02
2.500000000000000000e+02 1.660469230769230739e-04 5.107126551922995552e-07 1.000000000000000000e+02
3.500000000000000000e+02 9.639461538461538913e-05 2.883521159984596283e-07 1.000000000000000000e+02
4.500000000000000000e+02 5.958461538461538751e-05 2.667146160046961092e-07 1.000000000000000000e+02
5.500000000000000000e+02 3.742384615384615194e-05 1.241046831775005187e-07 1.000000000000000000e+02
6.500000000000000000e+02 2.387384615384615462e-05 1.490032630065119648e-07 1.000000000000000000e+02
7.500000000000000000e+02 1.516461538461538420e-05 6.128553793321306872e-08 1.000000000000000000e+02
8.500000000000000000e+02 9.645384615384615428e-06 9.215104229286151835e-08 1.000000000000000000e+02
9.500000000000000000e+02 6.088461538461538353e-06 6.625365160566483095e-08 1.000000000000000000e+02
1.500000000000000000e+03 1.048846153846153561e-06 1.007207751966446281e-08 1.000000000000000000e+03
2.500000000000000000e+03 9.307692307692309083e-09 7.543431119669562956e-10 1.000000000000000000e+03
3.500000000000000000e+03 7.692307692307692389e-11 7.692307692307692389e-11 1.000000000000000000e+03
