# #samples=12
# #numAvalanchesEach=1e6
# #d P(d) err[P(d)] binsize
# 
0.000000000000000000e+00 0.000000000000000000e+00 0.000000000000000000e+00 1.000000000000000000e+00
1.000000000000000000e+00 0.000000000000000000e+00 0.000000000000000000e+00 1.000000000000000000e+00
2.000000000000000000e+00 3.608066923076923560e-01 1.244443230780378231e-04 1.000000000000000000e+00
3.000000000000000000e+00 1.765714615384615382e-01 9.225338680355206445e-05 1.000000000000000000e+00
4.000000000000000000e+00 1.086323846153845890e-01 8.107076194174213011e-05 1.000000000000000000e+00
5.000000000000000000e+00 7.489446153846154863e-02 8.751590444354663209e-05 1.000000000000000000e+00
6.000000000000000000e+00 5.521938461538462156e-02 5.064197337639637648e-05 1.000000000000000000e+00
7.000000000000000000e+00 4.234299999999999176e-02 5.805689075469469649e-05 1.000000000000000000e+00
8.000000000000000000e+00 3.343015384615384555e-02 6.690414556871686564e-05 1.000000000000000000e+00
9.000000000000000000e+00 2.682069230769230234e-02 5.887093495306931437e-05 1.000000000000000000e+00
1.500000000000000000e+01 1.038741538461538522e-02 7.095600353648597050e-06 1.000000000000000000e+01
2.500000000000000000e+01 1.489853846153846393e-03 3.404307516176284825e-06 1.000000000000000000e+01
3.500000000000000000e+01 2.149153846153846101e-04 1.055926264534661496e-06 1.000000000000000000e+01
4.500000000000000000e+01 3.063846153846153624e-05 5.457925854673043968e-07 1.000000000000000000e+01
5.500000000000000000e+01 4.646153846153845064e-06 2.269122118215925096e-07 1.000000000000000000e+01
6.500000000000000000e+01 6.461538461538460920e-07 8.213137116947163085e-08 1.000000000000000000e+01
7.500000000000000000e+01 6.153846153846154077e-08 2.412165092593176687e-08 1.000000000000000000e+01
